{
  "project_info": {
    "project_number": "373581884731",
    "firebase_url": "https://cp65-8efd0.firebaseio.com",
    "project_id": "cp65-8efd0",
    "storage_bucket": "cp65-8efd0.appspot.com"
  },
  "client": [
    {
      "client_info": {
        "mobilesdk_app_id": "1:373581884731:android:ec98ead607b402712a9b1e",
        "android_client_info": {
          "package_name": "com.example.cp6"
        }
      },
      "oauth_client": [
        {
          "client_id": "373581884731-5rsrdamt2kbovefldhm5ha6fipj7pvdr.apps.googleusercontent.com",
          "client_type": 3
        }
      ],
      "api_key": [
        {
          "current_key": "AIzaSyCxsKavnyoBTIYH5Jq5ZwrAHvKgk_jNTXI"
        }
      ],
      "services": {
        "appinvite_service": {
          "other_platform_oauth_client": [
            {
              "client_id": "373581884731-5rsrdamt2kbovefldhm5ha6fipj7pvdr.apps.googleusercontent.com",
              "client_type": 3
            }
          ]
        }
      }
    }
  ],
  "configuration_version": "1"
}